…
    ## New names:
    ## New names:
    ## New names:
    ## New names:
    ## New names:
    ## • `` -> `...1`

``` r
final_table <- bind_rows(all_data)
print(final_table)
```

    ## # A tibble: 500 × 8
    ##     ...1 `Player ID` `Player Name`  Total (Last 365 Days…¹ `Highest Paying Game`
    ##    <dbl> <chr>       <chr>          <chr>                  <chr>                
    ##  1     1 Yinuo       Xu, Bicheng    $1,340,592.07          Arena of Valor       
    ##  2     2 CS          Xie, Chengjun  $1,147,734.93          Arena of Valor       
    ##  3     2 XuanRan     Liu, Ming      $1,147,734.93          Arena of Valor       
    ##  4     2 ZhongYi     Chen, Jiahao   $1,147,734.93          Arena of Valor       
    ##  5     5 UMA         Wang Yuan-hao  $1,001,476.20          Street Fighter 6     
    ##  6     6 Cat         Chen, Zhengzh… $945,311.10            Arena of Valor       
    ##  7     7 ATF         Ammar Al-Assaf $661,729.60            Dota 2               
    ##  8     7 Cr1t        Andreas Niels… $661,729.60            Dota 2               
    ##  9     7 Skiter      Oliver Lepko   $661,729.60            Dota 2               
    ## 10     7 Sneyking    Wu, Jingjun    $661,729.60            Dota 2               
    ## # ℹ 490 more rows
    ## # ℹ abbreviated name: ¹​`Total (Last 365 Days)`
    ## # ℹ 3 more variables: `Total (Game)` <chr>, `% of Total` <chr>, Country <chr>
…
